{
  "requestId": "6be4fded-c9d0-454c-ba21-aaae1dff2943",
  "data": null,
  "error": {
    "code": "err-format-email",
    "message": "The e-mail address 'info@@i18n.church' is invalid.",
    "type": "ERROR,",
    "helpUri": "https://tools.ietf.org/html/rfc5322",
    "context": [
      {
        "name": "email-value",
        "value": "wrong@@email.com",
        "valueType": "string",
        "help": "^[^@\\s]+@[^@\\s\\.]+\\.[^@\\.\\s]+$",
        "helpType": "regexp",
        "message": "E-mail address 'info@@i18n.church' contains invalid character at position [7]."
      }
    ]
  },
  "messages": []
}
